{
501 175
444 418
310 406
576 417
711 409
375 459
650 458
256 477
785 466
248 578
801 566
304 858
764 820
444 1038
551 1055
650 1026
533 907
443 725
599 714
-1 -1
-1 -1
-1 -1
-1 -1
-1 -1
-1 -1
-1 -1
-1 -1
-1 -1
-1 -1
-1 -1
}