{
391 598
393 725
709 847
730 794
714 754
729 705
732 673
694 611
781 580
687 456
694 411
637 310
569 231
615 464
645 464
-1 -1
-1 -1
-1 -1
-1 -1
-1 -1
-1 -1
-1 -1
-1 -1
-1 -1
-1 -1
-1 -1
-1 -1
-1 -1
-1 -1
-1 -1
}